﻿<?xml version="1.0" encoding="utf-8"?>
<svg version="1.1" xmlns:xlink="http://www.w3.org/1999/xlink" width="18px" height="18px" viewBox="456 364  18 18" xmlns="http://www.w3.org/2000/svg">
  <path d="M 456.5 367  A 2.5 2.5 0 0 1 459 364.5 L 471 364.5  A 2.5 2.5 0 0 1 473.5 367 L 473.5 379  A 2.5 2.5 0 0 1 471 381.5 L 459 381.5  A 2.5 2.5 0 0 1 456.5 379 L 456.5 367  Z " fill-rule="nonzero" fill="#ffffff" stroke="none" />
  <path d="M 456.5 367  A 2.5 2.5 0 0 1 459 364.5 L 471 364.5  A 2.5 2.5 0 0 1 473.5 367 L 473.5 379  A 2.5 2.5 0 0 1 471 381.5 L 459 381.5  A 2.5 2.5 0 0 1 456.5 379 L 456.5 367  Z " stroke-width="1" stroke="#797979" fill="none" />
  <path d="M 459.857142857143 373  L 463.714285714286 376.857142857143  L 470.142857142857 367.857142857143  " stroke-width="3.85714285714286" stroke="#797979" fill="none" />
</svg>