<svg id="Group_693" data-name="Group 693" xmlns="http://www.w3.org/2000/svg" width="28" height="28" viewBox="0 0 28 28">
  <g id="Group_692" data-name="Group 692" transform="translate(0.599 0.599)">
    <g id="Group_691" data-name="Group 691">
      <g id="Group_690" data-name="Group 690">
        <g id="Group_666" data-name="Group 666" transform="translate(5.618 5.599)">
          <path id="Path_11660" data-name="Path 11660" d="M146.35,283.26a7.624,7.624,0,0,0,1.492-4.533,7.783,7.783,0,0,0-15.566,0,7.629,7.629,0,0,0,1.614,4.694" transform="translate(-132.276 -271)" fill="none" stroke="#60ef0b" stroke-linecap="round" stroke-miterlimit="10" stroke-width="2"/>
          <path id="Path_11661" data-name="Path 11661" d="M135.745,281.994a5.542,5.542,0,0,1-.558-2.428,5.456,5.456,0,0,1,2.522-4.626,4.874,4.874,0,0,1,5.339,0,5.456,5.456,0,0,1,2.522,4.626,5.539,5.539,0,0,1-.55,2.412" transform="translate(-132.595 -271.502)" fill="none" stroke="#60ef0b" stroke-linecap="round" stroke-miterlimit="10" stroke-width="2"/>
          <path id="Path_11662" data-name="Path 11662" d="M144.843,285.121l-.047-.381a2.15,2.15,0,0,0-1.729-1.969c-.025-.007-.046-.013-.062-.019l-.082-.026a2.7,2.7,0,0,1-.943-.406.987.987,0,0,1-.007-.188,4.792,4.792,0,0,0,.572-1.066l.035-.008a.481.481,0,0,0,.285-.231c.7-1.089.174-1.621.059-1.717-.01-.009-.021-.017-.032-.025a2.579,2.579,0,0,0-.585-1.612,2.484,2.484,0,0,0-1.685-.8c-.013,0-.091-.005-.158,0s-.143,0-.157,0a2.483,2.483,0,0,0-1.686.8,2.567,2.567,0,0,0-.586,1.612.322.322,0,0,0-.033.026c-.114.1-.643.628.06,1.717a.476.476,0,0,0,.284.231l.035.008a4.834,4.834,0,0,0,.573,1.066,1.17,1.17,0,0,1-.006.188,2.727,2.727,0,0,1-.944.406l-.082.027-.061.018a2.145,2.145,0,0,0-1.728,1.956l-.048.394-.119.96a7.243,7.243,0,0,0,9,0Z" transform="translate(-132.68 -271.483)" fill="none" stroke="#60ef0b" stroke-linecap="round" stroke-miterlimit="10" stroke-width="2"/>
        </g>
        <g id="Ellipse_300" data-name="Ellipse 300" fill="none" stroke="#60ef0b" stroke-width="2">
          <circle cx="13.401" cy="13.401" r="13.401" stroke="none"/>
          <circle cx="13.401" cy="13.401" r="12.401" fill="none"/>
        </g>
      </g>
    </g>
  </g>
  <rect id="Rectangle_619" data-name="Rectangle 619" width="28" height="28" fill="none"/>
</svg>
